module attendancesystem

go 1.18

require (
	cloud.google.com/go/storage v1.27.0
	code.chakra.uno/crm/go-library v1.0.16
	github.com/go-playground/validator/v10 v10.12.0
	github.com/gofiber/fiber/v2 v2.44.0
	github.com/gofiber/template v1.8.1
	github.com/gofrs/uuid v4.0.0+incompatible
	github.com/ic2hrmk/lokigrus v0.0.4
	github.com/sirupsen/logrus v1.9.0
	github.com/spf13/viper v1.15.0
	github.com/t-tomalak/logrus-easy-formatter v0.0.0-20190827215021-c074f06c5816
	go.mongodb.org/mongo-driver v1.11.4
	go.uber.org/zap v1.24.0
	golang.org/x/crypto v0.8.0
	golang.org/x/exp v0.0.0-20230418202329-0354be287a23
	gorm.io/driver/postgres v1.4.5
	gorm.io/gorm v1.24.2
)

require github.com/dgrijalva/jwt-go v3.2.0+incompatible // indirect

require (
	cloud.google.com/go v0.105.0 // indirect
	cloud.google.com/go/compute v1.14.0 // indirect
	cloud.google.com/go/compute/metadata v0.2.3 // indirect
	cloud.google.com/go/iam v0.8.0 // indirect
	github.com/andybalholm/brotli v1.0.5 // indirect
	github.com/cespare/xxhash/v2 v2.1.2 // indirect
	github.com/dgryski/go-rendezvous v0.0.0-20200823014737-9f7001d12a5f // indirect
	github.com/fsnotify/fsnotify v1.6.0 // indirect
	github.com/go-playground/locales v0.14.1 // indirect
	github.com/go-playground/universal-translator v0.18.1 // indirect
	github.com/go-redis/redis/v8 v8.11.5 // indirect
	github.com/golang-jwt/jwt v3.2.2+incompatible
	github.com/golang/groupcache v0.0.0-20210331224755-41bb18bfe9da // indirect
	github.com/golang/protobuf v1.5.2 // indirect
	github.com/golang/snappy v0.0.3 // indirect
	github.com/google/go-cmp v0.5.9 // indirect
	github.com/google/uuid v1.3.0 // indirect
	github.com/googleapis/enterprise-certificate-proxy v0.2.1 // indirect
	github.com/googleapis/gax-go/v2 v2.7.0 // indirect
	github.com/hashicorp/hcl v1.0.0 // indirect
	github.com/ic2hrmk/promtail v0.0.4 // indirect
	github.com/jackc/chunkreader/v2 v2.0.1 // indirect
	github.com/jackc/pgconn v1.13.0 // indirect
	github.com/jackc/pgio v1.0.0 // indirect
	github.com/jackc/pgpassfile v1.0.0 // indirect
	github.com/jackc/pgproto3/v2 v2.3.1 // indirect
	github.com/jackc/pgservicefile v0.0.0-20200714003250-2b9c44734f2b // indirect
	github.com/jackc/pgtype v1.12.0 // indirect
	github.com/jackc/pgx/v4 v4.17.2 // indirect
	github.com/jinzhu/inflection v1.0.0 // indirect
	github.com/jinzhu/now v1.1.4 // indirect
	github.com/klauspost/compress v1.16.3 // indirect
	github.com/leodido/go-urn v1.2.2 // indirect
	github.com/magiconair/properties v1.8.7 // indirect
	github.com/mattn/go-colorable v0.1.13 // indirect
	github.com/mattn/go-isatty v0.0.18 // indirect
	github.com/mattn/go-runewidth v0.0.14 // indirect
	github.com/mitchellh/mapstructure v1.5.0 // indirect
	github.com/montanaflynn/stats v0.0.0-20171201202039-1bf9dbcd8cbe // indirect
	github.com/pelletier/go-toml/v2 v2.0.6 // indirect
	github.com/philhofer/fwd v1.1.2 // indirect
	github.com/pkg/errors v0.9.1 // indirect
	github.com/rivo/uniseg v0.2.0 // indirect
	github.com/savsgio/dictpool v0.0.0-20221023140959-7bf2e61cea94 // indirect
	github.com/savsgio/gotils v0.0.0-20230208104028-c358bd845dee // indirect
	github.com/spf13/afero v1.9.3 // indirect
	github.com/spf13/cast v1.5.0 // indirect
	github.com/spf13/jwalterweatherman v1.1.0 // indirect
	github.com/spf13/pflag v1.0.5 // indirect
	github.com/subosito/gotenv v1.4.2 // indirect
	github.com/tinylib/msgp v1.1.8 // indirect
	github.com/valyala/bytebufferpool v1.0.0 // indirect
	github.com/valyala/fasthttp v1.45.0 // indirect
	github.com/valyala/tcplisten v1.0.0 // indirect
	github.com/xdg-go/pbkdf2 v1.0.0 // indirect
	github.com/xdg-go/scram v1.1.1 // indirect
	github.com/xdg-go/stringprep v1.0.3 // indirect
	github.com/youmark/pkcs8 v0.0.0-20181117223130-1be2e3e5546d // indirect
	go.opencensus.io v0.24.0 // indirect
	go.uber.org/atomic v1.9.0 // indirect
	go.uber.org/multierr v1.8.0 // indirect
	golang.org/x/net v0.9.0 // indirect
	golang.org/x/oauth2 v0.0.0-20221014153046-6fdb5e3db783 // indirect
	golang.org/x/sync v0.1.0 // indirect
	golang.org/x/sys v0.7.0 // indirect
	golang.org/x/text v0.9.0 // indirect
	golang.org/x/xerrors v0.0.0-20220907171357-04be3eba64a2 // indirect
	google.golang.org/api v0.107.0 // indirect
	google.golang.org/appengine v1.6.7 // indirect
	google.golang.org/genproto v0.0.0-20221227171554-f9683d7f8bef // indirect
	google.golang.org/grpc v1.52.0 // indirect
	google.golang.org/protobuf v1.28.1 // indirect
	gopkg.in/ini.v1 v1.67.0 // indirect
	gopkg.in/yaml.v3 v3.0.1 // indirect
)
